{
  "urls": [
    {
      "name": "🌹公众号-恒星资料网",
      "url": "https://codeberg.org/hengxing/hx/raw/branch/main/1031hxzx.txt"
    },
    {
      "name": "💕全部4K💕",
      "url": "https://codeberg.org/hengxing/hx/raw/branch/main/qb4k.txt"
    },
    {
      "name": "💕运输车VIP💕",
      "url": "http://tvkj.top/DC/ysc/tvkj/svip.json"
    },
    {
      "name": "💕万达影视💕",
      "url": "http://sinopacifichk.com/box/56.txt"
    },
    {
      "name": "💕云星日记💕",
      "url": "http://itvbox.cc/tvbox/云星日记/1.m3u8"
    },
    {
      "name": "🌺春盈天下接口🌺",
      "url": "http://wp.anxwl.cn/down.php/245a89be183aeddb85d1501ed5eb3260.json"
    },
    {
      "name": "👿心魔线路👿",
      "url": "https://jihulab.com/yw88075/tvbox/-/raw/main/dr/js.json"
    },
    {
      "name": "🌸荷城茶锈在线🌸",
      "url": "http://rihou.vip:88/荷城茶秀"
    },
    {
      "name": "❤️以一抵十❤️",
      "url": "http://111.67.195.139/bd/JS/jsjk.json"
    },
    {
      "name": "🐼熊猫不是猫🐼",
      "url": "https://codeberg.org/xmbjm/xmbjmjk/raw/branch/main/xmbjm.json"
    },
    {
      "name": "💕壹梦在线💕",
      "url": "http://qrh.yimkj.cn/ym/壹梦.json"
    },
    {
      "name": "💕讴歌在线💕",
      "url": "http://tv.nxog.top/m/111.php?ou=公众号欧歌app&mz=index2&jar=index2&123&b=欧歌"
    },
    {
      "name": "🔥火影接口🔥",
      "url": "http://jar.lingutv.cn/tvbox/yw/yw.json"
    },
    {
      "name": "🍎鼎盛原小苹果🍎",
      "url": "http://61.183.41.92:588/%E5%BD%B1%E8%A7%86/%E9%BC%8E%E7%9B%9BMAX.json"
    },
    {
      "name": "🐟摸鱼接口🐟",
      "url": "https://jihulab.com/moyuer/momoyu/-/raw/main/moyu.json"
    },
    {
      "name": "👅非凡",
      "url": "https://codeberg.org/jgfx/dym/raw/branch/master/master825.json"
    },
    {
      "name": "🤟以一敌十🤟",
      "url": "http://111.67.195.139/bd/JS/jsjk.json"
    },
    {
      "name": "🎾小米",
      "url": "http://xhww.fun:63/小米/DEMO.json"
    },
    {
      "name": "🌵锦哥哥🍀",
      "url": "http://jin.锦哥哥.love"
    },
    {
      "name": "🍓魔改线路",
      "url": "https://download.kstore.space/download/2883/%E5%BD%B1%E8%A7%86%E4%BB%93.txt"
    },
    {
      "name": "👿道长降魔👿",
      "url": "http://111.67.195.139/bd/drpy/dz.json"
    },
    {
      "name": "⚽金榜影视",
      "url": "https://wds.ecsxs.com:443/230989.json"
    },
    {
      "name": "🌺泥巴",
      "url": "https://ghproxy.com/raw.githubusercontent.com/gaotianliuyun/gao/master/0827.json"
    },
    {
      "name": "🌺香雅情",
      "url": "https://raw.gitmirror.com/yw88075/tvbox/main/XYQTVBox/XYQTVBox.json"
    },
    {
      "name": "🌼圈圈",
      "url": "https://ghproxy.com/https://raw.githubusercontent.com/PizazzGY/TVBox/main/api2.json"
    },
    {
      "name": "☃️蚂蚁接口",
      "url": "https://ghproxy.com/raw.githubusercontent.com/gaotianliuyun/gao/master/js.json"
    },
    {
      "name": "🏆荷城茶秀",
      "url": "https://agit.ai/XiaoYiChaHang/xxzb/raw/branch/master/hccx.json"
    },
    {
      "name": "💛心动",
      "url": "https://jihulab.com/yw88075/tvbox/-/raw/main/yw.json"
    },
    {
      "name": "🥝蜂蜜",
      "url": "https://ghproxy.com/https://raw.githubusercontent.com/PizazzGY/TVBox_warehouse/main/影视/api.json"
    },
    {
      "name": "💞多多",
      "url": "https://yydsys.top/duo"
    },
    {
      "name": "🍚饭太硬",
      "url": "http://饭太硬.top/tv"
    },
    {
      "name": "🚒运输车",
      "url": "https://pan.shangui.cc/f/mPecb/%E9%87%87%E9%9B%86.json"
    },
    {
      "name": "🐼肥猫",
      "url": "http://我不是.肥猫.love:63/接口禁止贩卖"
    },
    {
      "name": "🌨高天流云JS",
      "url": "https://ghproxy.com/raw.githubusercontent.com/gaotianliuyun/gao/master/js.json"
    },
    {
      "name": "💦4k给力",
      "url": "http://xxxoo.shop"
    },
  
    {
      "name": "🦉讴歌",
      "url": "http://tv.nxog.top/m/111.php?ou=公众号欧歌app&mz=all&jar=all&b=欧歌"
    }
  ]
}
